// Jest Snapshot v1, https://goo.gl/fbAQLP

exports[`Details should render Details component with correct structure 1`] = `
<div>
  <TextField
    disabled={false}
    floatingLabelFixed={true}
    floatingLabelText="Nome"
    fullWidth={false}
    id="name"
    multiLine={false}
    readOnly={true}
    rows={1}
    type="text"
    underlineShow={false}
    value="teste"
  />
  <Divider
    inset={false}
  />
  <TextField
    disabled={false}
    floatingLabelFixed={true}
    floatingLabelText="Linguagem"
    fullWidth={false}
    multiLine={false}
    readOnly={true}
    rows={1}
    type="text"
    underlineShow={false}
    value="java"
  />
  <Divider
    inset={false}
  />
  <TextField
    disabled={false}
    floatingLabelFixed={true}
    floatingLabelText="Estrelas"
    fullWidth={false}
    multiLine={false}
    readOnly={true}
    rows={1}
    type="number"
    underlineShow={false}
    value={2}
  />
  <Divider
    inset={false}
  />
  <TextField
    disabled={false}
    floatingLabelFixed={true}
    floatingLabelText="Descrição"
    fullWidth={true}
    multiLine={true}
    readOnly={true}
    rows={5}
    type="text"
    underlineShow={true}
    value="teste desc"
  />
</div>
`;

exports[`Details should render Details component with correct structure 2`] = `
<div>
  <TextField
    disabled={false}
    floatingLabelFixed={true}
    floatingLabelText="Nome"
    fullWidth={false}
    id="name"
    multiLine={false}
    readOnly={true}
    rows={1}
    type="text"
    underlineShow={false}
    value="teste2"
  />
  <Divider
    inset={false}
  />
  <TextField
    disabled={false}
    floatingLabelFixed={true}
    floatingLabelText="Linguagem"
    fullWidth={false}
    multiLine={false}
    readOnly={true}
    rows={1}
    type="text"
    underlineShow={false}
    value="js"
  />
  <Divider
    inset={false}
  />
  <TextField
    disabled={false}
    floatingLabelFixed={true}
    floatingLabelText="Estrelas"
    fullWidth={false}
    multiLine={false}
    readOnly={true}
    rows={1}
    type="number"
    underlineShow={false}
    value={2000}
  />
  <Divider
    inset={false}
  />
  <TextField
    disabled={false}
    floatingLabelFixed={true}
    floatingLabelText="Descrição"
    fullWidth={true}
    multiLine={true}
    readOnly={true}
    rows={5}
    type="text"
    underlineShow={true}
    value="teste desc asc"
  />
</div>
`;
