// Jest Snapshot v1, https://goo.gl/fbAQLP

exports[`should render layout with title with success 1`] = `
<AppBar
  iconElementLeft={<span />}
  showMenuIconButton={true}
  style={
    Object {
      "textAlign": "center",
      "zIndex": 0,
    }
  }
  title={
    <Connect(SearchUser)
      wrapperFieldStyle={
        Object {
          "width": "60%",
        }
      }
    />
  }
  zDepth={1}
/>
`;
