// Jest Snapshot v1, https://goo.gl/fbAQLP

exports[`SortableHeaderColumnFont should render SortableHeaderColumnFont component with correct structure 1`] = `
<FontIcon
  className="material-icons"
  color="#757575"
  onMouseEnter={[Function]}
  onMouseLeave={[Function]}
  style={
    Object {
      "cursor": "pointer",
      "verticalAlign": "middle",
    }
  }
>
  keyboard_arrow_up
</FontIcon>
`;
